<?xml version="1.0" encoding="UTF-8" standalone="no"?>
<svg
   xmlns:dc="http://purl.org/dc/elements/1.1/"
   xmlns:cc="http://creativecommons.org/ns#"
   xmlns:rdf="http://www.w3.org/1999/02/22-rdf-syntax-ns#"
   xmlns:svg="http://www.w3.org/2000/svg"
   xmlns="http://www.w3.org/2000/svg"
   xmlns:sodipodi="http://sodipodi.sourceforge.net/DTD/sodipodi-0.dtd"
   xmlns:inkscape="http://www.inkscape.org/namespaces/inkscape"
   width="16"
   height="16"
   version="1.1"
   viewBox="0 0 16 16"
   id="svg5969"
   inkscape:version="0.92.5 (2060ec1f9f, 2020-04-08)"
   sodipodi:docname="icon_video_stream_f_fmpeg.svg">
  <metadata
     id="metadata5979">
    <rdf:RDF>
      <cc:Work
         rdf:about="">
        <dc:format>image/svg+xml</dc:format>
        <dc:type
           rdf:resource="http://purl.org/dc/dcmitype/StillImage" />
        <dc:title></dc:title>
      </cc:Work>
    </rdf:RDF>
  </metadata>
  <defs
     id="defs5977" />
  <sodipodi:namedview
     pagecolor="#ffffff"
     bordercolor="#666666"
     borderopacity="1"
     objecttolerance="10"
     gridtolerance="10"
     guidetolerance="10"
     inkscape:pageopacity="0"
     inkscape:pageshadow="2"
     inkscape:window-width="1836"
     inkscape:window-height="1022"
     id="namedview5975"
     showgrid="false"
     inkscape:zoom="16"
     inkscape:cx="4.3485374"
     inkscape:cy="3.9425378"
     inkscape:window-x="1977"
     inkscape:window-y="34"
     inkscape:window-maximized="0"
     inkscape:current-layer="svg5969" />
  <path
     style="color:#000000;font-style:normal;font-variant:normal;font-weight:normal;font-stretch:normal;font-size:medium;line-height:normal;font-family:sans-serif;font-variant-ligatures:normal;font-variant-position:normal;font-variant-caps:normal;font-variant-numeric:normal;font-variant-alternates:normal;font-feature-settings:normal;text-indent:0;text-align:start;text-decoration:none;text-decoration-line:none;text-decoration-style:solid;text-decoration-color:#000000;letter-spacing:normal;word-spacing:normal;text-transform:none;writing-mode:lr-tb;direction:ltr;text-orientation:mixed;dominant-baseline:auto;baseline-shift:baseline;text-anchor:start;white-space:normal;shape-padding:0;clip-rule:nonzero;display:inline;overflow:visible;visibility:visible;opacity:1;isolation:auto;mix-blend-mode:normal;color-interpolation:sRGB;color-interpolation-filters:linearRGB;solid-color:#000000;solid-opacity:1;vector-effect:none;fill:#008700;fill-opacity:1;fill-rule:nonzero;stroke:none;stroke-width:18;stroke-linecap:round;stroke-linejoin:round;stroke-miterlimit:4;stroke-dasharray:none;stroke-dashoffset:0;stroke-opacity:1;color-rendering:auto;image-rendering:auto;shape-rendering:auto;text-rendering:auto;enable-background:accumulate"
     d="m 2.792283,2.0000784 a 0.78123564,0.78267677 0 1 0 0,1.565197 H 4.378331 L 2.23998,5.7075708 A 0.78123564,0.78267677 0 0 0 2.011125,6.2608925 v 3.4782156 a 0.78123564,0.78267677 0 0 0 1.33346,0.5533219 l 6.714768,-6.7271546 h 1.2626 L 2.23998,12.664002 a 0.78123564,0.78267677 0 0 0 0.552303,1.33592 H 6.264094 A 0.78123564,0.78267677 0 0 0 6.816397,13.770645 L 12.426559,8.1501342 V 9.4150634 L 9.183602,12.664002 a 0.78123564,0.78267677 0 0 0 0.552303,1.33592 h 3.471811 a 0.78123564,0.78267677 0 1 0 0,-1.565197 H 11.621668 L 13.760019,10.29243 A 0.78123564,0.78267677 0 0 0 13.988874,9.7391081 V 6.2608925 A 0.78123564,0.78267677 0 0 0 12.655414,5.7075708 L 5.940646,12.434725 h -1.2626 l 9.081973,-9.0987266 a 0.78123564,0.78267677 0 0 0 -0.552303,-1.33592 H 9.735905 A 0.78123564,0.78267677 0 0 0 9.183602,2.2293554 L 3.57344,7.8498664 V 6.5849371 L 6.816397,3.3359984 a 0.78123564,0.78267677 0 0 0 -0.552303,-1.33592 z"
     id="path2"
     inkscape:connector-curvature="0" />
</svg>
