<?xml version="1.0" encoding="UTF-8" standalone="no"?>
<svg
   xmlns:dc="http://purl.org/dc/elements/1.1/"
   xmlns:cc="http://creativecommons.org/ns#"
   xmlns:rdf="http://www.w3.org/1999/02/22-rdf-syntax-ns#"
   xmlns:svg="http://www.w3.org/2000/svg"
   xmlns="http://www.w3.org/2000/svg"
   xmlns:sodipodi="http://sodipodi.sourceforge.net/DTD/sodipodi-0.dtd"
   xmlns:inkscape="http://www.inkscape.org/namespaces/inkscape"
   height="150"
   viewBox="0 0 150 150"
   width="150"
   version="1.1"
   id="svg19"
   sodipodi:docname="hap-logo.svg"
   inkscape:version="0.92.5 (2060ec1f9f, 2020-04-08)">
  <metadata
     id="metadata25">
    <rdf:RDF>
      <cc:Work
         rdf:about="">
        <dc:format>image/svg+xml</dc:format>
        <dc:type
           rdf:resource="http://purl.org/dc/dcmitype/StillImage" />
        <dc:title></dc:title>
      </cc:Work>
    </rdf:RDF>
  </metadata>
  <defs
     id="defs23">
    <mask
       id="a-3"
       fill="#fff">
      <path
         d="M 0,34.172709 H 103.78064 V 0.79280686 H 0 Z"
         id="path2-6"
         inkscape:connector-curvature="0"
         style="fill:#ffffff;fill-rule:evenodd" />
    </mask>
    <mask
       id="mask4548"
       fill="#fff">
      <path
         d="M 0,34.172709 H 103.78064 V 0.79280686 H 0 Z"
         id="path4546"
         inkscape:connector-curvature="0"
         style="fill:#ffffff;fill-rule:evenodd" />
    </mask>
    <filter
       style="color-interpolation-filters:sRGB;"
       inkscape:label="Drop Shadow"
       id="filter4704">
      <feFlood
         flood-opacity="1"
         flood-color="rgb(255,53,0)"
         result="flood"
         id="feFlood4694" />
      <feComposite
         in="flood"
         in2="SourceGraphic"
         operator="in"
         result="composite1"
         id="feComposite4696" />
      <feGaussianBlur
         in="composite1"
         stdDeviation="3.82514"
         result="blur"
         id="feGaussianBlur4698" />
      <feOffset
         dx="0"
         dy="0"
         result="offset"
         id="feOffset4700" />
      <feComposite
         in="SourceGraphic"
         in2="offset"
         operator="over"
         result="composite2"
         id="feComposite4702" />
    </filter>
  </defs>
  <sodipodi:namedview
     pagecolor="#ffffff"
     bordercolor="#666666"
     borderopacity="1"
     objecttolerance="10"
     gridtolerance="10"
     guidetolerance="10"
     inkscape:pageopacity="0"
     inkscape:pageshadow="2"
     inkscape:window-width="1478"
     inkscape:window-height="772"
     id="namedview21"
     showgrid="false"
     inkscape:showpageshadow="false"
     inkscape:zoom="2.7211538"
     inkscape:cx="76.989399"
     inkscape:cy="66.376325"
     inkscape:window-x="237"
     inkscape:window-y="139"
     inkscape:window-maximized="0"
     inkscape:current-layer="layer4" />
  <mask
     id="a"
     fill="#fff">
    <path
       d="M 0,34.172709 H 103.78064 V 0.79280686 H 0 Z"
       id="path2"
       inkscape:connector-curvature="0"
       style="fill:#ffffff;fill-rule:evenodd" />
  </mask>
  <g
     inkscape:groupmode="layer"
     id="layer3"
     inkscape:label="Layer 2">
    <rect
       style="opacity:1;vector-effect:none;fill:#000000;fill-opacity:1;stroke:none;stroke-width:0.5669291;stroke-linecap:round;stroke-linejoin:round;stroke-miterlimit:4;stroke-dasharray:none;stroke-dashoffset:0;stroke-opacity:1"
       id="rect4585"
       width="150"
       height="150"
       x="0"
       y="-1.50204e-06" />
  </g>
  <g
     inkscape:groupmode="layer"
     id="layer2"
     inkscape:label="Layer 1">
    <g
       id="g17"
       style="fill:#ffffff;fill-rule:evenodd;stroke-width:1.04846525"
       transform="matrix(0.95377508,0,0,0.95377508,25.508348,78.266961)">
      <path
         d="m 57.622205,14.206022 v 7.581216 h -7.987899 v -7.581216 h -4.947429 v 20.027771 h 4.947429 v -8.372314 h 7.987899 v 8.372314 h 4.948303 V 14.206022 Z"
         id="path5"
         inkscape:connector-curvature="0"
         style="stroke-width:1.04846525" />
      <path
         d="m 73.048114,14.206022 -8.59442,20.027771 h 5.381782 l 1.505815,-3.930716 h 7.92847 l 1.592337,3.930716 h 5.498016 L 77.851341,14.206022 Z m 2.315967,5.347175 2.544941,6.872986 h -5.150185 z"
         id="path7"
         inkscape:connector-curvature="0"
         style="stroke-width:1.04846525" />
      <g
         transform="translate(0,0.061255)"
         id="g15"
         style="stroke-width:1.04846525">
        <path
           d="M 95.360921,18.048829 H 93.19003 v 4.724377 h 2.082622 c 1.852773,0 3.560471,-0.537366 3.560471,-2.433097 0,-1.923923 -1.707698,-2.29128 -3.472202,-2.29128 z m 0.288403,8.57137 H 93.19003 v 7.552169 H 88.241728 V 14.144597 h 7.522958 c 4.485984,0 8.015864,1.583905 8.015864,6.16732 0,4.638945 -3.848873,6.308282 -8.131226,6.308282 z"
           id="path9"
           inkscape:connector-curvature="0"
           style="stroke-width:1.04846525" />
        <path
           d="M 0,34.172709 H 15.366656 V 0.79280686 H 0 Z"
           mask="url(#a-3)"
           id="path11"
           inkscape:connector-curvature="0"
           style="stroke-width:1.04846525" />
        <path
           d="M 18.780302,34.172709 H 34.146958 V 14.144939 H 18.780302 Z"
           mask="url(#a-3)"
           id="path13"
           inkscape:connector-curvature="0"
           style="stroke-width:1.04846525" />
      </g>
    </g>
  </g>
  <g
     inkscape:groupmode="layer"
     id="layer4"
     inkscape:label="Layer 3">
    <g
       aria-label="G"
       transform="matrix(1.4505706,0,0,1.4505706,75.085036,-22.277419)"
       style="font-style:normal;font-weight:normal;font-size:40px;line-height:125%;font-family:sans-serif;letter-spacing:0px;word-spacing:0px;fill:#ff7500;fill-opacity:1;stroke:none;stroke-width:0.68938392px;stroke-linecap:butt;stroke-linejoin:miter;stroke-opacity:1;filter:url(#filter4704)"
       id="flowRoot4590">
      <path
         d="m -0.535,42.938672 c 3.24,0 6.28,1.32 8.24,3.12 0.92,0.84 2.4,0.76 3.24,-0.16 0.84,-0.96 0.76,-2.4 -0.16,-3.28 -3.36,-3 -7.64,-4.28 -11.32,-4.28 -9.4,0 -17.08,7.68 -17.08,17.08 0,9.44 7.68,17.08 17.08,17.08 3.48,0 6.72,-1.04 9.44,-3 l 2.4,2.32 c 0.92,0.88 2.4,0.84 3.28,-0.04 0.88,-0.92 0.84,-2.4 -0.04,-3.28 l -2.28,-2.2 c 0.24,-0.28 0.48,-0.6 0.72,-0.92 2,-2.8 3.2,-6.24 3.2,-9.96 0,-1.32 -0.96,-2.28 -2.28,-2.28 h -16.16 c -1,0 -1.8,0.52 -2.16,1.44 -0.36,0.88 -0.16,1.8 0.52,2.48 l 9.44,9.16 c -1.76,1.08 -3.8,1.68 -6.08,1.68 -6.88,0 -12.48,-5.6 -12.48,-12.48 0,-6.88 5.6,-12.48 12.48,-12.48 z m 9.48,20.16 -5.56,-5.36 h 8 c -0.36,1.8 -1.08,3.48 -2.12,4.96 z"
         style="font-style:normal;font-variant:normal;font-weight:bold;font-stretch:normal;font-family:Nemoy;-inkscape-font-specification:'Nemoy Bold';fill:#ff7500;fill-opacity:1;stroke-width:0.21813007px"
         id="path4706" />
    </g>
  </g>
</svg>
